{
  "entrypoint": "index.html",
  "shell": "src/bio-app.html",
  "fragments": [
    "src/bio-cytoscape-view.html",
    "src/bio-mygene-view.html",
    "src/bio-search-view.html",
    "src/bio-pdb-view.html",
    "src/bio-view404.html"
  ],
  "sourceGlobs": [
    "src/**/*",
    "images/**/*",
    "bower.json"
  ],
  "includeDependencies": [
    "manifest.json",
    "bower_components/webcomponentsjs/webcomponents-lite.min.js"
  ]
}